<svg xmlns:xlink="http://www.w3.org/1999/xlink" fill="none" stroke="none" stroke-linecap="square" stroke-miterlimit="10"
    version="1.1" viewBox="0.0 0.0 1080.0 1820.0"
    xmlns="http://www.w3.org/2000/svg">
    <clipPath id="p.0">
        <path clip-rule="nonzero" d="m0 0l1080.0 0l0 1820.0l-1080.0 0l0 -1820.0z" />
    </clipPath>
    <g clip-path="url(#p.0)">
        <defs>
            <linearGradient gradientTransform="matrix(42.66150383661305 0.0 0.0 42.66150383661305 0.0 0.0)" gradientUnits="userSpaceOnUse"
                id="p.1"
                spreadMethod="pad" x1="3.317434509676664E-10" x2="-1.5443389127461506E-4"
                y1="-9.16420911814763E-5" y2="42.66141219424233">
                <stop offset="0.0" stop-color="#70ad47" />
                <stop offset="0.3" stop-color="#38af9c" />
                <stop offset="0.5" stop-color="#00b0f0" />
                <stop offset="0.84" stop-color="#b97a54" />
                <stop offset="0.99999994" stop-color="#ff8034" />
                <stop offset="1.0" stop-color="#737373" />
            </linearGradient>
        </defs>
        <path d="m0 0l1080.0 0l0 1820.0l-1080.0 0z" fill="url(#p.1)" fill-rule="evenodd" />
        <path d="m0 0l1080.0 0l0 1820.0l-1080.0 0z" fill="#000000" fill-opacity="0.581"
            fill-rule="evenodd" />
    </g>
</svg>