<svg
    xmlns="http://www.w3.org/2000/svg"
    viewBox="0 0 1024 1024"
    id="vector">
    <g id="group">

        <path
            id="path_2"
            d="M 406.4 625.89 L 368.06 570.51 L 365.79 570.51 L 325.74 570.51 L 325.74 625.89 L 279.74 625.89 L 279.74 427.09 L 365.79 427.09 Q 392.2 427.09 411.65 435.9 Q 431.1 444.7 441.6 460.88 Q 452.12 477.07 452.12 499.22 Q 452.12 521.36 441.46 537.41 Q 430.82 553.46 411.23 561.97 L 455.82 625.88 L 406.4 625.88 Z M 405.56 499.23 Q 405.56 482.46 394.76 473.53 Q 383.96 464.58 363.23 464.58 L 325.75 464.58 L 325.75 533.88 L 363.23 533.88 Q 383.96 533.88 394.76 524.8 Q 405.56 515.71 405.56 499.24 Z M 637.02 473.09 L 568 635.26 Q 557.48 661.67 542 672.46 Q 526.53 683.26 504.67 683.26 Q 492.73 683.26 481.09 679.56 Q 469.45 675.87 462.06 669.34 L 478.25 637.81 Q 483.36 642.36 490.03 644.9 Q 496.72 647.46 503.25 647.46 Q 512.33 647.46 518 643.05 Q 523.69 638.66 528.23 628.44 L 528.81 627.02 L 462.64 473.08 L 508.36 473.08 L 551.25 576.75 L 594.41 473.08 L 637.02 473.08 Z M 778.16 591.81 L 778.16 625.89 L 641.83 625.89 L 641.83 599.19 L 719.64 507.17 L 643.81 507.17 L 643.81 473.09 L 775.59 473.09 L 775.59 499.79 L 697.78 591.81 L 778.16 591.81 Z M 954.23 550.06 Q 954.23 550.92 953.39 561.98 L 837.8 561.98 Q 840.93 576.18 852.57 584.42 Q 864.23 592.65 881.54 592.65 Q 893.48 592.65 902.7 589.1 Q 911.93 585.55 919.89 577.88 L 943.47 603.44 Q 921.88 628.14 880.42 628.14 Q 854.58 628.14 834.69 618.06 Q 814.81 607.98 804.02 590.09 Q 793.24 572.2 793.24 549.48 Q 793.24 527.04 803.88 509.01 Q 814.54 490.96 833.13 480.88 Q 851.74 470.8 874.74 470.8 Q 897.18 470.8 915.35 480.46 Q 933.54 490.12 943.9 508.15 Q 954.26 526.18 954.26 550.04 Z M 875 504.34 Q 859.95 504.34 849.72 512.86 Q 839.5 521.38 837.24 536.14 L 912.51 536.14 Q 910.23 521.66 899.99 513 Q 889.77 504.34 875.01 504.34 Z"
            fill="#ffffff"
            stroke="#00000000"
            stroke-linecap="square"/>
        <path
            id="path_3"
            d="M 17.52 467.31 L 90.09 394.74 L 235.22 394.74 L 235.22 539.87 L 162.65 612.44 L 162.65 467.31 Z"
            fill="#ffffff"
            stroke="#00000000"
            stroke-linecap="square"
            fill-rule="evenodd"/>
    </g>
</svg>
